\relax 
\catcode `"\active 
\select@language{brazil}
\@writefile{toc}{\select@language{brazil}}
\@writefile{lof}{\select@language{brazil}}
\@writefile{lot}{\select@language{brazil}}
\@writefile{toc}{\contentsline {section}{\numberline {1}Introdu\IeC {\c c}\IeC {\~a}o}{2}}
\@writefile{toc}{\contentsline {section}{\numberline {2}Modelagem do Problema}{2}}
\@writefile{toc}{\contentsline {subsection}{\numberline {2.1}Quicksort1}{2}}
\@writefile{lof}{\contentsline {figure}{\numberline {1}{\ignorespaces Particionamento do vetor com apenas um piv\IeC {\^o}\relax }}{2}}
\@writefile{toc}{\contentsline {subsection}{\numberline {2.2}Quicksort2}{3}}
\@writefile{lof}{\contentsline {figure}{\numberline {2}{\ignorespaces Particionamento do vetor considerando dois piv\IeC {\^o}s\relax }}{3}}
\@writefile{toc}{\contentsline {subsection}{\numberline {2.3}Quicksort3}{4}}
\@writefile{lof}{\contentsline {figure}{\numberline {3}{\ignorespaces Particionamento do vetor considerando tr\IeC {\^e}s piv\IeC {\^o}s\relax }}{5}}
\@writefile{toc}{\contentsline {subsection}{\numberline {2.4}Algoritmos H\IeC {\'\i }bridos: QuicksortH1, QuicksortH2, QuicksortH3}{6}}
\@writefile{toc}{\contentsline {section}{\numberline {3}Estrutura do programa}{6}}
\@writefile{toc}{\contentsline {section}{\numberline {4}Resultados}{8}}
\@writefile{lof}{\contentsline {figure}{\numberline {4}{\ignorespaces Tempo de execu\IeC {\c c}\IeC {\~a}o para ordenar 10000 elementos em fun\IeC {\c c}\IeC {\~a}o do \it  {cutoff}\relax }}{9}}
\@writefile{lof}{\contentsline {figure}{\numberline {5}{\ignorespaces An\IeC {\'a}lise do n\IeC {\'u}mero de trocas\relax }}{9}}
\@writefile{lof}{\contentsline {figure}{\numberline {6}{\ignorespaces An\IeC {\'a}lise do n\IeC {\'u}mero de compara\IeC {\c c}\IeC {\~o}es\relax }}{10}}
\@writefile{lof}{\contentsline {figure}{\numberline {7}{\ignorespaces An\IeC {\'a}lise do tempo de execu\IeC {\c c}\IeC {\~a}o\relax }}{11}}
\@writefile{lof}{\contentsline {figure}{\numberline {8}{\ignorespaces An\IeC {\'a}lise do tempo de execu\IeC {\c c}\IeC {\~a}o para casos especiais de entrada\relax }}{11}}
\bibcite{}{1}
\@writefile{toc}{\contentsline {section}{\numberline {5}Conclus\IeC {\~a}o}{13}}
\bibcite{}{2}
\bibcite{}{3}
\bibcite{}{4}
\expandafter\gdef\csname eqp@this@COMMENT\endcsname{200.6203pt}
\expandafter\gdef\csname eqp@next@COMMENT\endcsname{0pt}
