\select@language {brazil}
\contentsline {section}{\numberline {1}Introdu\IeC {\c c}\IeC {\~a}o}{2}
\contentsline {section}{\numberline {2}Modelagem do Problema}{2}
\contentsline {subsection}{\numberline {2.1}Quicksort1}{2}
\contentsline {subsection}{\numberline {2.2}Quicksort2}{3}
\contentsline {subsection}{\numberline {2.3}Quicksort3}{4}
\contentsline {subsection}{\numberline {2.4}Algoritmos H\IeC {\'\i }bridos: QuicksortH1, QuicksortH2, QuicksortH3}{6}
\contentsline {section}{\numberline {3}Estrutura do programa}{6}
\contentsline {section}{\numberline {4}Resultados}{8}
\contentsline {section}{\numberline {5}Conclus\IeC {\~a}o}{13}
