\relax 
\catcode `"\active 
\select@language{brazil}
\@writefile{toc}{\select@language{brazil}}
\@writefile{lof}{\select@language{brazil}}
\@writefile{lot}{\select@language{brazil}}
\@writefile{toc}{\contentsline {section}{\numberline {1}Introdu\IeC {\c c}\IeC {\~a}o}{2}}
\@writefile{toc}{\contentsline {section}{\numberline {2}Modelagem do Problema}{2}}
\providecommand*\caption@xref[2]{\@setref\relax\@undefined{#1}}
\newlabel{fig:sub1}{{1a}{2}}
\newlabel{sub@fig:sub1}{{a}{2}}
\newlabel{fig:sub2}{{1b}{2}}
\newlabel{sub@fig:sub2}{{b}{2}}
\@writefile{toc}{\contentsline {subsection}{\numberline {2.1}M\IeC {\'e}todo A1}{2}}
\@writefile{toc}{\contentsline {subsection}{\numberline {2.2}M\IeC {\'e}todo A2}{3}}
\@writefile{toc}{\contentsline {subsection}{\numberline {2.3}M\IeC {\'e}todo A3}{3}}
\@writefile{toc}{\contentsline {section}{\numberline {3}Estrutura do programa}{4}}
\@writefile{toc}{\contentsline {section}{\numberline {4}Resultados}{9}}
\@writefile{lof}{\contentsline {figure}{\numberline {2}{\ignorespaces Tempo para encontrar o CIM em fun\IeC {\c c}\IeC {\~a}o do n\IeC {\'u}mero de arestas\relax }}{10}}
\@writefile{lof}{\contentsline {figure}{\numberline {3}{\ignorespaces Tempo para encontrar o CIM em fun\IeC {\c c}\IeC {\~a}o do n\IeC {\'u}mero de arestas com zoom\relax }}{11}}
\@writefile{lof}{\contentsline {figure}{\numberline {4}{\ignorespaces N\IeC {\'u}mero de chamadas recursivas para encontrar o CIM em fun\IeC {\c c}\IeC {\~a}o do n\IeC {\'u}mero de arestas\relax }}{12}}
\bibcite{}{1}
\bibcite{}{2}
\@writefile{toc}{\contentsline {section}{\numberline {5}Conclus\IeC {\~a}o}{13}}
