\select@language {brazil}
\contentsline {section}{\numberline {1}Introdu\IeC {\c c}\IeC {\~a}o}{2}
\contentsline {section}{\numberline {2}Modelagem do Problema}{2}
\contentsline {subsection}{\numberline {2.1}M\IeC {\'e}todo A1}{2}
\contentsline {subsection}{\numberline {2.2}M\IeC {\'e}todo A2}{3}
\contentsline {subsection}{\numberline {2.3}M\IeC {\'e}todo A3}{3}
\contentsline {section}{\numberline {3}Estrutura do programa}{4}
\contentsline {section}{\numberline {4}Resultados}{9}
\contentsline {section}{\numberline {5}Conclus\IeC {\~a}o}{13}
