quicksort1 77536 14620 000s 000ms 548us

quicksort2 51607 26185 000s 000ms 467us

quicksort3 69207 29743 000s 000ms 477us

quicksortH_1 77935 9947 34 000s 000ms 480us

quicksortH_2 65399 15439 38 000s 000ms 452us

quicksortH_3 72871 17179 35 000s 000ms 465us

