\relax 
\catcode `"\active 
\select@language{brazil}
\@writefile{toc}{\select@language{brazil}}
\@writefile{lof}{\select@language{brazil}}
\@writefile{lot}{\select@language{brazil}}
\@writefile{toc}{\contentsline {section}{\numberline {1}Introdu\IeC {\c c}\IeC {\~a}o}{2}}
\@writefile{toc}{\contentsline {section}{\numberline {2}Modelagem do Problema}{2}}
\@writefile{toc}{\contentsline {subsection}{\numberline {2.1}Multiplica\IeC {\c c}\IeC {\~a}o em tempo quadr\IeC {\'a}tico}{2}}
\@writefile{toc}{\contentsline {subsection}{\numberline {2.2}Multiplica\IeC {\c c}\IeC {\~a}o utilizando o Algoritmo de Karatsuba}{3}}
\@writefile{toc}{\contentsline {subsection}{\numberline {2.3}Multiplica\IeC {\c c}\IeC {\~a}o utilizando a Transformada R\IeC {\'a}pida de Fourier (FFT)}{4}}
\@writefile{lof}{\contentsline {figure}{\numberline {1}{\ignorespaces \IeC {\'A}rvore das chamadas recursivas\relax }}{5}}
\@writefile{lof}{\contentsline {figure}{\numberline {2}{\ignorespaces Multiplica\IeC {\c c}\IeC {\~a}o r\IeC {\'a}pida de polin\IeC {\^o}mios\relax }}{6}}
\@writefile{toc}{\contentsline {section}{\numberline {3}Estrutura do programa}{7}}
\@writefile{toc}{\contentsline {section}{\numberline {4}Resultados}{11}}
\@writefile{lof}{\contentsline {figure}{\numberline {3}{\ignorespaces Resultados para multiplica\IeC {\c c}\IeC {\~a}o do polin\IeC {\^o}mios utilizando os tr\IeC {\^e}s algoritmos citados\relax }}{11}}
\@writefile{lof}{\contentsline {figure}{\numberline {4}{\ignorespaces Zoom dos resultados para visualizar quando as curvas se interceptam\relax }}{12}}
\bibcite{}{1}
\bibcite{}{2}
\bibcite{}{3}
\@writefile{toc}{\contentsline {section}{\numberline {5}Conclus\IeC {\~a}o}{13}}
