10 25 60
0 10	0 12	0 13	0 17	1 14	2 5	2 6	2 8	2 11	2 13	2 19	2 20	3 5	3 17	4 8	4 14	4 24	5 16	5 24	6 10	6 15	6 17	6 18	6 20	6 21	7 14	7 18	7 19	8 19	8 21	9 13	9 14	9 17	9 24	10 12	10 15	11 14	11 16	11 20	11 21	12 15	12 22	12 23	13 17	13 20	13 22	14 22	14 23	15 16	15 21	15 24	16 20	17 22	18 21	20 21	20 22	20 23	21 23	22 23	22 24	
0 10	0 12	0 13	0 17	1 14	2 5	2 6	2 8	2 11	2 13	2 19	2 20	3 5	3 17	4 8	4 14	4 24	5 16	5 24	6 10	6 15	6 17	6 18	6 20	6 21	7 14	7 18	7 19	8 19	8 21	9 13	9 14	9 17	9 24	10 12	10 15	11 14	11 16	11 20	11 21	12 15	12 22	12 23	13 17	13 20	13 22	14 22	14 23	15 16	15 21	15 24	16 20	17 22	18 21	20 21	20 22	20 23	21 23	22 23	22 24	
0 10	0 12	0 13	0 17	1 14	2 5	2 6	2 8	2 11	2 13	2 19	2 20	3 5	3 17	4 8	4 14	4 24	5 16	5 24	6 10	6 15	6 17	6 18	6 20	6 21	7 14	7 18	7 19	8 19	8 21	9 13	9 14	9 17	9 24	10 12	10 15	11 14	11 16	11 20	11 21	12 15	12 22	12 23	13 17	13 20	13 22	14 22	14 23	15 16	15 21	15 24	16 20	17 22	18 21	20 21	20 22	20 23	21 23	22 23	22 24	
0 10	0 12	0 13	0 17	1 14	2 5	2 6	2 8	2 11	2 13	2 19	2 20	3 5	3 17	4 8	4 14	4 24	5 16	5 24	6 10	6 15	6 17	6 18	6 20	6 21	7 14	7 18	7 19	8 19	8 21	9 13	9 14	9 17	9 24	10 12	10 15	11 14	11 16	11 20	11 21	12 15	12 22	12 23	13 17	13 20	13 22	14 22	14 23	15 16	15 21	15 24	16 20	17 22	18 21	20 21	20 22	20 23	21 23	22 23	22 24	
0 10	0 12	0 13	0 17	1 14	2 5	2 6	2 8	2 11	2 13	2 19	2 20	3 5	3 17	4 8	4 14	4 24	5 16	5 24	6 10	6 15	6 17	6 18	6 20	6 21	7 14	7 18	7 19	8 19	8 21	9 13	9 14	9 17	9 24	10 12	10 15	11 14	11 16	11 20	11 21	12 15	12 22	12 23	13 17	13 20	13 22	14 22	14 23	15 16	15 21	15 24	16 20	17 22	18 21	20 21	20 22	20 23	21 23	22 23	22 24	
0 10	0 12	0 13	0 17	1 14	2 5	2 6	2 8	2 11	2 13	2 19	2 20	3 5	3 17	4 8	4 14	4 24	5 16	5 24	6 10	6 15	6 17	6 18	6 20	6 21	7 14	7 18	7 19	8 19	8 21	9 13	9 14	9 17	9 24	10 12	10 15	11 14	11 16	11 20	11 21	12 15	12 22	12 23	13 17	13 20	13 22	14 22	14 23	15 16	15 21	15 24	16 20	17 22	18 21	20 21	20 22	20 23	21 23	22 23	22 24	
0 10	0 12	0 13	0 17	1 14	2 5	2 6	2 8	2 11	2 13	2 19	2 20	3 5	3 17	4 8	4 14	4 24	5 16	5 24	6 10	6 15	6 17	6 18	6 20	6 21	7 14	7 18	7 19	8 19	8 21	9 13	9 14	9 17	9 24	10 12	10 15	11 14	11 16	11 20	11 21	12 15	12 22	12 23	13 17	13 20	13 22	14 22	14 23	15 16	15 21	15 24	16 20	17 22	18 21	20 21	20 22	20 23	21 23	22 23	22 24	
0 10	0 12	0 13	0 17	1 14	2 5	2 6	2 8	2 11	2 13	2 19	2 20	3 5	3 17	4 8	4 14	4 24	5 16	5 24	6 10	6 15	6 17	6 18	6 20	6 21	7 14	7 18	7 19	8 19	8 21	9 13	9 14	9 17	9 24	10 12	10 15	11 14	11 16	11 20	11 21	12 15	12 22	12 23	13 17	13 20	13 22	14 22	14 23	15 16	15 21	15 24	16 20	17 22	18 21	20 21	20 22	20 23	21 23	22 23	22 24	
0 10	0 12	0 13	0 17	1 14	2 5	2 6	2 8	2 11	2 13	2 19	2 20	3 5	3 17	4 8	4 14	4 24	5 16	5 24	6 10	6 15	6 17	6 18	6 20	6 21	7 14	7 18	7 19	8 19	8 21	9 13	9 14	9 17	9 24	10 12	10 15	11 14	11 16	11 20	11 21	12 15	12 22	12 23	13 17	13 20	13 22	14 22	14 23	15 16	15 21	15 24	16 20	17 22	18 21	20 21	20 22	20 23	21 23	22 23	22 24	
0 10	0 12	0 13	0 17	1 14	2 5	2 6	2 8	2 11	2 13	2 19	2 20	3 5	3 17	4 8	4 14	4 24	5 16	5 24	6 10	6 15	6 17	6 18	6 20	6 21	7 14	7 18	7 19	8 19	8 21	9 13	9 14	9 17	9 24	10 12	10 15	11 14	11 16	11 20	11 21	12 15	12 22	12 23	13 17	13 20	13 22	14 22	14 23	15 16	15 21	15 24	16 20	17 22	18 21	20 21	20 22	20 23	21 23	22 23	22 24	
