10 10 27
0 3	0 4	0 5	0 7	1 2	1 4	1 5	1 8	2 4	2 5	2 6	2 7	2 8	2 9	3 5	3 7	3 8	4 5	4 6	4 8	5 7	5 8	5 9	6 8	6 9	7 8	8 9	
0 3	0 4	0 5	0 7	1 2	1 4	1 5	1 8	2 4	2 5	2 6	2 7	2 8	2 9	3 5	3 7	3 8	4 5	4 6	4 8	5 7	5 8	5 9	6 8	6 9	7 8	8 9	
0 3	0 4	0 5	0 7	1 2	1 4	1 5	1 8	2 4	2 5	2 6	2 7	2 8	2 9	3 5	3 7	3 8	4 5	4 6	4 8	5 7	5 8	5 9	6 8	6 9	7 8	8 9	
0 3	0 4	0 5	0 7	1 2	1 4	1 5	1 8	2 4	2 5	2 6	2 7	2 8	2 9	3 5	3 7	3 8	4 5	4 6	4 8	5 7	5 8	5 9	6 8	6 9	7 8	8 9	
0 3	0 4	0 5	0 7	1 2	1 4	1 5	1 8	2 4	2 5	2 6	2 7	2 8	2 9	3 5	3 7	3 8	4 5	4 6	4 8	5 7	5 8	5 9	6 8	6 9	7 8	8 9	
0 3	0 4	0 5	0 7	1 2	1 4	1 5	1 8	2 4	2 5	2 6	2 7	2 8	2 9	3 5	3 7	3 8	4 5	4 6	4 8	5 7	5 8	5 9	6 8	6 9	7 8	8 9	
0 3	0 4	0 5	0 7	1 2	1 4	1 5	1 8	2 4	2 5	2 6	2 7	2 8	2 9	3 5	3 7	3 8	4 5	4 6	4 8	5 7	5 8	5 9	6 8	6 9	7 8	8 9	
0 3	0 4	0 5	0 7	1 2	1 4	1 5	1 8	2 4	2 5	2 6	2 7	2 8	2 9	3 5	3 7	3 8	4 5	4 6	4 8	5 7	5 8	5 9	6 8	6 9	7 8	8 9	
0 3	0 4	0 5	0 7	1 2	1 4	1 5	1 8	2 4	2 5	2 6	2 7	2 8	2 9	3 5	3 7	3 8	4 5	4 6	4 8	5 7	5 8	5 9	6 8	6 9	7 8	8 9	
0 3	0 4	0 5	0 7	1 2	1 4	1 5	1 8	2 4	2 5	2 6	2 7	2 8	2 9	3 5	3 7	3 8	4 5	4 6	4 8	5 7	5 8	5 9	6 8	6 9	7 8	8 9	
