10 25 150
0 1	0 3	0 4	0 9	0 10	0 12	0 13	0 14	0 15	0 17	0 21	1 2	1 4	1 5	1 7	1 9	1 13	1 14	1 15	1 16	1 18	1 20	1 21	1 22	2 5	2 6	2 8	2 9	2 10	2 11	2 13	2 15	2 19	2 20	2 21	2 24	3 4	3 5	3 7	3 11	3 13	3 16	3 17	3 22	3 24	4 8	4 11	4 14	4 22	4 24	5 7	5 8	5 11	5 14	5 15	5 16	5 22	5 23	5 24	6 10	6 11	6 12	6 14	6 15	6 17	6 18	6 19	6 20	6 21	6 23	6 24	7 8	7 9	7 12	7 13	7 14	7 18	7 19	7 23	8 10	8 11	8 13	8 15	8 16	8 17	8 18	8 19	8 21	8 22	8 23	8 24	9 13	9 14	9 15	9 17	9 19	9 24	10 11	10 12	10 15	10 16	10 17	10 20	11 12	11 14	11 15	11 16	11 20	11 21	11 22	12 14	12 15	12 20	12 21	12 22	12 23	12 24	13 14	13 17	13 20	13 22	14 16	14 21	14 22	14 23	15 16	15 19	15 21	15 24	16 17	16 19	16 20	16 21	16 22	16 24	17 18	17 20	17 22	18 20	18 21	18 22	18 24	19 21	20 21	20 22	20 23	21 23	21 24	22 23	22 24	
0 1	0 3	0 4	0 9	0 10	0 12	0 13	0 14	0 15	0 17	0 21	1 2	1 4	1 5	1 7	1 9	1 13	1 14	1 15	1 16	1 18	1 20	1 21	1 22	2 5	2 6	2 8	2 9	2 10	2 11	2 13	2 15	2 19	2 20	2 21	2 24	3 4	3 5	3 7	3 11	3 13	3 16	3 17	3 22	3 24	4 8	4 11	4 14	4 22	4 24	5 7	5 8	5 11	5 14	5 15	5 16	5 22	5 23	5 24	6 10	6 11	6 12	6 14	6 15	6 17	6 18	6 19	6 20	6 21	6 23	6 24	7 8	7 9	7 12	7 13	7 14	7 18	7 19	7 23	8 10	8 11	8 13	8 15	8 16	8 17	8 18	8 19	8 21	8 22	8 23	8 24	9 13	9 14	9 15	9 17	9 19	9 24	10 11	10 12	10 15	10 16	10 17	10 20	11 12	11 14	11 15	11 16	11 20	11 21	11 22	12 14	12 15	12 20	12 21	12 22	12 23	12 24	13 14	13 17	13 20	13 22	14 16	14 21	14 22	14 23	15 16	15 19	15 21	15 24	16 17	16 19	16 20	16 21	16 22	16 24	17 18	17 20	17 22	18 20	18 21	18 22	18 24	19 21	20 21	20 22	20 23	21 23	21 24	22 23	22 24	
0 1	0 3	0 4	0 9	0 10	0 12	0 13	0 14	0 15	0 17	0 21	1 2	1 4	1 5	1 7	1 9	1 13	1 14	1 15	1 16	1 18	1 20	1 21	1 22	2 5	2 6	2 8	2 9	2 10	2 11	2 13	2 15	2 19	2 20	2 21	2 24	3 4	3 5	3 7	3 11	3 13	3 16	3 17	3 22	3 24	4 8	4 11	4 14	4 22	4 24	5 7	5 8	5 11	5 14	5 15	5 16	5 22	5 23	5 24	6 10	6 11	6 12	6 14	6 15	6 17	6 18	6 19	6 20	6 21	6 23	6 24	7 8	7 9	7 12	7 13	7 14	7 18	7 19	7 23	8 10	8 11	8 13	8 15	8 16	8 17	8 18	8 19	8 21	8 22	8 23	8 24	9 13	9 14	9 15	9 17	9 19	9 24	10 11	10 12	10 15	10 16	10 17	10 20	11 12	11 14	11 15	11 16	11 20	11 21	11 22	12 14	12 15	12 20	12 21	12 22	12 23	12 24	13 14	13 17	13 20	13 22	14 16	14 21	14 22	14 23	15 16	15 19	15 21	15 24	16 17	16 19	16 20	16 21	16 22	16 24	17 18	17 20	17 22	18 20	18 21	18 22	18 24	19 21	20 21	20 22	20 23	21 23	21 24	22 23	22 24	
0 1	0 3	0 4	0 9	0 10	0 12	0 13	0 14	0 15	0 17	0 21	1 2	1 4	1 5	1 7	1 9	1 13	1 14	1 15	1 16	1 18	1 20	1 21	1 22	2 5	2 6	2 8	2 9	2 10	2 11	2 13	2 15	2 19	2 20	2 21	2 24	3 4	3 5	3 7	3 11	3 13	3 16	3 17	3 22	3 24	4 8	4 11	4 14	4 22	4 24	5 7	5 8	5 11	5 14	5 15	5 16	5 22	5 23	5 24	6 10	6 11	6 12	6 14	6 15	6 17	6 18	6 19	6 20	6 21	6 23	6 24	7 8	7 9	7 12	7 13	7 14	7 18	7 19	7 23	8 10	8 11	8 13	8 15	8 16	8 17	8 18	8 19	8 21	8 22	8 23	8 24	9 13	9 14	9 15	9 17	9 19	9 24	10 11	10 12	10 15	10 16	10 17	10 20	11 12	11 14	11 15	11 16	11 20	11 21	11 22	12 14	12 15	12 20	12 21	12 22	12 23	12 24	13 14	13 17	13 20	13 22	14 16	14 21	14 22	14 23	15 16	15 19	15 21	15 24	16 17	16 19	16 20	16 21	16 22	16 24	17 18	17 20	17 22	18 20	18 21	18 22	18 24	19 21	20 21	20 22	20 23	21 23	21 24	22 23	22 24	
0 1	0 3	0 4	0 9	0 10	0 12	0 13	0 14	0 15	0 17	0 21	1 2	1 4	1 5	1 7	1 9	1 13	1 14	1 15	1 16	1 18	1 20	1 21	1 22	2 5	2 6	2 8	2 9	2 10	2 11	2 13	2 15	2 19	2 20	2 21	2 24	3 4	3 5	3 7	3 11	3 13	3 16	3 17	3 22	3 24	4 8	4 11	4 14	4 22	4 24	5 7	5 8	5 11	5 14	5 15	5 16	5 22	5 23	5 24	6 10	6 11	6 12	6 14	6 15	6 17	6 18	6 19	6 20	6 21	6 23	6 24	7 8	7 9	7 12	7 13	7 14	7 18	7 19	7 23	8 10	8 11	8 13	8 15	8 16	8 17	8 18	8 19	8 21	8 22	8 23	8 24	9 13	9 14	9 15	9 17	9 19	9 24	10 11	10 12	10 15	10 16	10 17	10 20	11 12	11 14	11 15	11 16	11 20	11 21	11 22	12 14	12 15	12 20	12 21	12 22	12 23	12 24	13 14	13 17	13 20	13 22	14 16	14 21	14 22	14 23	15 16	15 19	15 21	15 24	16 17	16 19	16 20	16 21	16 22	16 24	17 18	17 20	17 22	18 20	18 21	18 22	18 24	19 21	20 21	20 22	20 23	21 23	21 24	22 23	22 24	
0 1	0 3	0 4	0 9	0 10	0 12	0 13	0 14	0 15	0 17	0 21	1 2	1 4	1 5	1 7	1 9	1 13	1 14	1 15	1 16	1 18	1 20	1 21	1 22	2 5	2 6	2 8	2 9	2 10	2 11	2 13	2 15	2 19	2 20	2 21	2 24	3 4	3 5	3 7	3 11	3 13	3 16	3 17	3 22	3 24	4 8	4 11	4 14	4 22	4 24	5 7	5 8	5 11	5 14	5 15	5 16	5 22	5 23	5 24	6 10	6 11	6 12	6 14	6 15	6 17	6 18	6 19	6 20	6 21	6 23	6 24	7 8	7 9	7 12	7 13	7 14	7 18	7 19	7 23	8 10	8 11	8 13	8 15	8 16	8 17	8 18	8 19	8 21	8 22	8 23	8 24	9 13	9 14	9 15	9 17	9 19	9 24	10 11	10 12	10 15	10 16	10 17	10 20	11 12	11 14	11 15	11 16	11 20	11 21	11 22	12 14	12 15	12 20	12 21	12 22	12 23	12 24	13 14	13 17	13 20	13 22	14 16	14 21	14 22	14 23	15 16	15 19	15 21	15 24	16 17	16 19	16 20	16 21	16 22	16 24	17 18	17 20	17 22	18 20	18 21	18 22	18 24	19 21	20 21	20 22	20 23	21 23	21 24	22 23	22 24	
0 1	0 3	0 4	0 9	0 10	0 12	0 13	0 14	0 15	0 17	0 21	1 2	1 4	1 5	1 7	1 9	1 13	1 14	1 15	1 16	1 18	1 20	1 21	1 22	2 5	2 6	2 8	2 9	2 10	2 11	2 13	2 15	2 19	2 20	2 21	2 24	3 4	3 5	3 7	3 11	3 13	3 16	3 17	3 22	3 24	4 8	4 11	4 14	4 22	4 24	5 7	5 8	5 11	5 14	5 15	5 16	5 22	5 23	5 24	6 10	6 11	6 12	6 14	6 15	6 17	6 18	6 19	6 20	6 21	6 23	6 24	7 8	7 9	7 12	7 13	7 14	7 18	7 19	7 23	8 10	8 11	8 13	8 15	8 16	8 17	8 18	8 19	8 21	8 22	8 23	8 24	9 13	9 14	9 15	9 17	9 19	9 24	10 11	10 12	10 15	10 16	10 17	10 20	11 12	11 14	11 15	11 16	11 20	11 21	11 22	12 14	12 15	12 20	12 21	12 22	12 23	12 24	13 14	13 17	13 20	13 22	14 16	14 21	14 22	14 23	15 16	15 19	15 21	15 24	16 17	16 19	16 20	16 21	16 22	16 24	17 18	17 20	17 22	18 20	18 21	18 22	18 24	19 21	20 21	20 22	20 23	21 23	21 24	22 23	22 24	
0 1	0 3	0 4	0 9	0 10	0 12	0 13	0 14	0 15	0 17	0 21	1 2	1 4	1 5	1 7	1 9	1 13	1 14	1 15	1 16	1 18	1 20	1 21	1 22	2 5	2 6	2 8	2 9	2 10	2 11	2 13	2 15	2 19	2 20	2 21	2 24	3 4	3 5	3 7	3 11	3 13	3 16	3 17	3 22	3 24	4 8	4 11	4 14	4 22	4 24	5 7	5 8	5 11	5 14	5 15	5 16	5 22	5 23	5 24	6 10	6 11	6 12	6 14	6 15	6 17	6 18	6 19	6 20	6 21	6 23	6 24	7 8	7 9	7 12	7 13	7 14	7 18	7 19	7 23	8 10	8 11	8 13	8 15	8 16	8 17	8 18	8 19	8 21	8 22	8 23	8 24	9 13	9 14	9 15	9 17	9 19	9 24	10 11	10 12	10 15	10 16	10 17	10 20	11 12	11 14	11 15	11 16	11 20	11 21	11 22	12 14	12 15	12 20	12 21	12 22	12 23	12 24	13 14	13 17	13 20	13 22	14 16	14 21	14 22	14 23	15 16	15 19	15 21	15 24	16 17	16 19	16 20	16 21	16 22	16 24	17 18	17 20	17 22	18 20	18 21	18 22	18 24	19 21	20 21	20 22	20 23	21 23	21 24	22 23	22 24	
0 1	0 3	0 4	0 9	0 10	0 12	0 13	0 14	0 15	0 17	0 21	1 2	1 4	1 5	1 7	1 9	1 13	1 14	1 15	1 16	1 18	1 20	1 21	1 22	2 5	2 6	2 8	2 9	2 10	2 11	2 13	2 15	2 19	2 20	2 21	2 24	3 4	3 5	3 7	3 11	3 13	3 16	3 17	3 22	3 24	4 8	4 11	4 14	4 22	4 24	5 7	5 8	5 11	5 14	5 15	5 16	5 22	5 23	5 24	6 10	6 11	6 12	6 14	6 15	6 17	6 18	6 19	6 20	6 21	6 23	6 24	7 8	7 9	7 12	7 13	7 14	7 18	7 19	7 23	8 10	8 11	8 13	8 15	8 16	8 17	8 18	8 19	8 21	8 22	8 23	8 24	9 13	9 14	9 15	9 17	9 19	9 24	10 11	10 12	10 15	10 16	10 17	10 20	11 12	11 14	11 15	11 16	11 20	11 21	11 22	12 14	12 15	12 20	12 21	12 22	12 23	12 24	13 14	13 17	13 20	13 22	14 16	14 21	14 22	14 23	15 16	15 19	15 21	15 24	16 17	16 19	16 20	16 21	16 22	16 24	17 18	17 20	17 22	18 20	18 21	18 22	18 24	19 21	20 21	20 22	20 23	21 23	21 24	22 23	22 24	
0 1	0 3	0 4	0 9	0 10	0 12	0 13	0 14	0 15	0 17	0 21	1 2	1 4	1 5	1 7	1 9	1 13	1 14	1 15	1 16	1 18	1 20	1 21	1 22	2 5	2 6	2 8	2 9	2 10	2 11	2 13	2 15	2 19	2 20	2 21	2 24	3 4	3 5	3 7	3 11	3 13	3 16	3 17	3 22	3 24	4 8	4 11	4 14	4 22	4 24	5 7	5 8	5 11	5 14	5 15	5 16	5 22	5 23	5 24	6 10	6 11	6 12	6 14	6 15	6 17	6 18	6 19	6 20	6 21	6 23	6 24	7 8	7 9	7 12	7 13	7 14	7 18	7 19	7 23	8 10	8 11	8 13	8 15	8 16	8 17	8 18	8 19	8 21	8 22	8 23	8 24	9 13	9 14	9 15	9 17	9 19	9 24	10 11	10 12	10 15	10 16	10 17	10 20	11 12	11 14	11 15	11 16	11 20	11 21	11 22	12 14	12 15	12 20	12 21	12 22	12 23	12 24	13 14	13 17	13 20	13 22	14 16	14 21	14 22	14 23	15 16	15 19	15 21	15 24	16 17	16 19	16 20	16 21	16 22	16 24	17 18	17 20	17 22	18 20	18 21	18 22	18 24	19 21	20 21	20 22	20 23	21 23	21 24	22 23	22 24	
