10 10 13
1 4	2 4	2 6	2 7	2 8	3 7	4 5	4 6	4 8	5 9	6 8	7 8	8 9	
1 4	2 4	2 6	2 7	2 8	3 7	4 5	4 6	4 8	5 9	6 8	7 8	8 9	
1 4	2 4	2 6	2 7	2 8	3 7	4 5	4 6	4 8	5 9	6 8	7 8	8 9	
1 4	2 4	2 6	2 7	2 8	3 7	4 5	4 6	4 8	5 9	6 8	7 8	8 9	
1 4	2 4	2 6	2 7	2 8	3 7	4 5	4 6	4 8	5 9	6 8	7 8	8 9	
1 4	2 4	2 6	2 7	2 8	3 7	4 5	4 6	4 8	5 9	6 8	7 8	8 9	
1 4	2 4	2 6	2 7	2 8	3 7	4 5	4 6	4 8	5 9	6 8	7 8	8 9	
1 4	2 4	2 6	2 7	2 8	3 7	4 5	4 6	4 8	5 9	6 8	7 8	8 9	
1 4	2 4	2 6	2 7	2 8	3 7	4 5	4 6	4 8	5 9	6 8	7 8	8 9	
1 4	2 4	2 6	2 7	2 8	3 7	4 5	4 6	4 8	5 9	6 8	7 8	8 9	
